{
  "dev": {
    "driver": "mysql",
    "user": "root",
    "password": "1065473",
    "database": "timeN"
  },

  "test": {
    "driver": "mysql",
    "user": "root",
    "password": "admin"
  },

  "prod": {
    "driver": "mysql",
    "user": "root",
    "password": "admin"
  }
}
